{
  "images" : [
    {
      "filename" : "ic_futter_menu_organization_unselect.png",
      "idiom" : "universal",
      "scale" : "1x"
    },
    {
      "filename" : "ic_futter_menu_organization_unselect@2x.png",
      "idiom" : "universal",
      "scale" : "2x"
    },
    {
      "filename" : "ic_futter_menu_organization_unselect@3x.png",
      "idiom" : "universal",
      "scale" : "3x"
    }
  ],
  "info" : {
    "author" : "xcode",
    "version" : 1
  }
}
