{
  "images" : [
    {
      "filename" : "ic_book_detail_page_user_splash_holder.png",
      "idiom" : "universal",
      "scale" : "1x"
    },
    {
      "filename" : "ic_book_detail_page_user_splash_holder@2x.png",
      "idiom" : "universal",
      "scale" : "2x"
    },
    {
      "filename" : "ic_book_detail_page_user_splash_holder@3x.png",
      "idiom" : "universal",
      "scale" : "3x"
    }
  ],
  "info" : {
    "author" : "xcode",
    "version" : 1
  }
}
